-------------------------------------------------------------------------------
Test set: com.endurance.emdb.controller.UserControllerTest
-------------------------------------------------------------------------------
Tests run: 3, Failures: 0, Errors: 0, Skipped: 0, Time elapsed: 7.013 sec - in com.endurance.emdb.controller.UserControllerTest
